[gd_scene load_steps=3 format=3 uid="uid://cd5om5yrwkxcd"]

[ext_resource type="QuadMesh" uid="uid://c3v8srhgrukdp" path="res://new_quad_mesh.tres" id="1_1o2ob"]

[sub_resource type="ParticleProcessMaterial" id="ParticleProcessMaterial_1fwkn"]
particle_flag_damping_as_friction = true
emission_shape_scale = Vector3(15, 0, 1)
emission_shape = 3
emission_box_extents = Vector3(1, 1, 1)
gravity = Vector3(0, 0, 8)
scale_max = 1.2
color = Color(1, 1, 1, 0)

[node name="forrest" type="GPUParticles3D"]
transform = Transform3D(1, 0, 0, 0, 1, 0, 0, 0, 1, -49.0548, -5.57842, -80)
amount = 50
lifetime = 6.0
randomness = 1.0
visibility_aabb = AABB(-47.5995, -10, -10.9966, 95.2969, 20, 167.013)
draw_order = 2
process_material = SubResource("ParticleProcessMaterial_1fwkn")
draw_pass_1 = ExtResource("1_1o2ob")
