[gd_resource type="ParticleProcessMaterial" format=3 uid="uid://ijcpnaq5447u"]

[resource]
emission_shape_scale = Vector3(1, 1, 0)
emission_shape = 6
emission_ring_axis = Vector3(0, 0, 1)
emission_ring_height = 0.0
emission_ring_radius = 4.135
emission_ring_inner_radius = 5.0
gravity = Vector3(1, 0, 0)
scale_min = 0.2
scale_max = 0.9
turbulence_enabled = true
turbulence_noise_scale = 2.864
